These are the display colors in RGB.  The game is actually displaying extended ASCII characters in OpenGL, so you can modify the colors.

[BLACK_R:0]
[BLACK_G:0]
[BLACK_B:0]
[BLUE_R:51]
[BLUE_G:153]
[BLUE_B:153]
[GREEN_R:0]
[GREEN_G:102]
[GREEN_B:51]
[CYAN_R:51]
[CYAN_G:204]
[CYAN_B:204]
[RED_R:102]
[RED_G:0]
[RED_B:0]
[MAGENTA_R:153]
[MAGENTA_G:152]
[MAGENTA_B:204]
[BROWN_R:153]
[BROWN_G:102]
[BROWN_B:0]
[LGRAY_R:153]
[LGRAY_G:153]
[LGRAY_B:153]
[DGRAY_R:102]
[DGRAY_G:102]
[DGRAY_B:102]
[LBLUE_R:0]
[LBLUE_G:153]
[LBLUE_B:204]
[LGREEN_R:51]
[LGREEN_G:153]
[LGREEN_B:0]
[LCYAN_R:0]
[LCYAN_G:102]
[LCYAN_B:204]
[LRED_R:153]
[LRED_G:0]
[LRED_B:51]
[LMAGENTA_R:102]
[LMAGENTA_G:51]
[LMAGENTA_B:153]
[YELLOW_R:204]
[YELLOW_G:204]
[YELLOW_B:51]
[WHITE_R:204]
[WHITE_G:255]
[WHITE_B:255]
